5000 19122.8 1271.22
10000 72988.7 1821.76
15000 165051 9228.46
20000 290227 6480.33
25000 453209 14326.9
30000 647497 16559.5
35000 898040 31323.9
40000 1.16906e+06 41471.5
45000 1.50907e+06 46171.3
50000 1.81896e+06 57347.9
55000 2.1624e+06 26421.1
60000 2.56424e+06 27342.5
65000 3.02184e+06 57510.9
70000 3.51081e+06 47726.5
75000 4.06095e+06 80396.4
80000 4.72393e+06 124366
85000 5.44331e+06 91073.1
90000 6.12013e+06 119544
95000 6.55478e+06 232739
100000 7.0079e+06 18309.2
105000 7.75511e+06 32707.6
110000 8.49583e+06 22879.1
115000 9.28888e+06 24853.7
120000 1.01579e+07 52322.9
125000 1.10627e+07 75767.8
130000 1.19183e+07 55178.4
135000 1.28751e+07 210292
140000 1.38235e+07 39574.5
145000 1.48318e+07 60153.3
150000 1.60684e+07 191293
155000 1.73886e+07 453797
160000 1.92408e+07 527343
